…
- populations: (e.g. households and usual residents)
- area types: the level of geographic specificity (e.g. country, Local
  Authority and LSOA)
- areas: what areas are available for a given area type
- variables: what sociodemographic variables (e.g. age, English language
  proficiency, disability status) data is available for
- categorisations: given a variable, how to divide the values of it
  (e.g. age into 101 categories or 2)

Each function outputs the available options as a tibble.

``` r
get_available_variables()
#> # A tibble: 44 × 5
#>    id                       label description total_count quality_statement_text
#>    <chr>                    <chr> <chr>             <int> <chr>                 
#>  1 activity_last_week       Econ… "This vari…           8 "As Census 2021 was d…
#>  2 age_arrival_uk_23a       Age … "The date …          23 ""                    
#>  3 alternative_address_ind… Seco… "An addres…           3 "The true number of p…
#>  4 country_of_birth_190a    Coun… "The count…         190 ""                    
#>  5 country_of_birth_60a     Coun… "The count…          60 ""                    
#>  6 disability               Disa… "People wh…           5 ""                    
#>  7 economic_activity_statu… Econ… "People ag…          12 "As Census 2021 was d…
#>  8 english_proficiency      Prof… "How well …           6 ""                    
#>  9 ethnic_group_tb_20b      Ethn… "The ethni…          20 ""                    
#> 10 has_ever_worked          Empl… "Classifie…           4 "As Census 2021 was d…
#> # ℹ 34 more rows
```
…
